{
    "composer": "J. Haydn",
    "id": "Haydn.17.3.iv",
    "sources": {
        "audios": [],
        "images": [
            {
                "image": "Haydn.17.3.iv.png",
                "positions": "positions.json",
                "type": "score"
            }
        ]
    },
    "time-signature": "4/4",
    "title": "String Quartet #3, Op 17, quartet 3, mvt. iv",
    "title:fr": "Quatuor n\u00b03, Op 17, quatuor 3, mvt. iv"
}