[
    {
        "Id":"bwv846",
        "Name":"Fuga #01 in C major, BWV 846",
        "Composer":"J.-S. Bach",
        "Image":"/path/to/01.png"
    },
    {
        "Id":"bwv847",
        "Name":"Fuga #02 in C minor, BWV 847",
        "Composer":"J.-S. Bach",
        "Image":"/path/to/02.png"
    },
    {
        "Id":"bwv848",
        "Name":"Fuga #03 in C♯ major, BWV 848",
        "Composer":"J.-S. Bach",
        "Image":"/path/to/03.png"
    },
    {
        "Id":"bwv850",
        "Name":"Fuga #05 in D major, BWV 850",
        "Composer":"J.-S. Bach",
        "Image":"/path/to/05.png"
    },
    {
        "Id":"bwv854",
        "Name":"Fuga #09 in E major, BWV 854",
        "Composer":"J.-S. Bach",
        "Image":"/path/to/09.png"
    },
    {
        "Id":"k157.1",
        "Name":"String quartet #4 in C major, Allegro, K 157.1",
        "Composer":"W. A. Mozart",
        "Image":"/path/to/157.png"
    }
]
