[
    {
        "date": 0.022448979,
        "onset": 1
    },
    {
        "date": 1.393197278,
        "onset": 2
    },
    {
        "date": 2.525170068,
        "onset": 3
    },
    {
        "date": 3.506938775,
        "onset": 4
    },
    {
        "date": 4.534399092,
        "onset": 5
    },
    {
        "date": 5.416462585,
        "onset": 6
    },
    {
        "date": 6.323378684,
        "onset": 7
    },
    {
        "date": 7.383945578,
        "onset": 8
    },
    {
        "date": 8.521723356,
        "onset": 9
    },
    {
        "date": 9.63047619,
        "onset": 10
    },
    {
        "date": 10.56170068,
        "onset": 11
    },
    {
        "date": 11.629342403,
        "onset": 12
    },
    {
        "date": 12.66664399,
        "onset": 13
    },
    {
        "date": 13.53723356,
        "onset": 14
    },
    {
        "date": 14.495056689,
        "onset": 15
    },
    {
        "date": 15.467619047,
        "onset": 16
    },
    {
        "date": 16.439433106,
        "onset": 17
    },
    {
        "date": 17.264036281,
        "onset": 18
    },
    {
        "date": 18.248390022,
        "onset": 19
    },
    {
        "date": 19.239909297,
        "onset": 20
    },
    {
        "date": 20.206802721,
        "onset": 21
    },
    {
        "date": 21.089523809,
        "onset": 22
    },
    {
        "date": 22.01494331,
        "onset": 23
    },
    {
        "date": 22.956575963,
        "onset": 24
    },
    {
        "date": 23.974603174,
        "onset": 25
    },
    {
        "date": 24.849591836,
        "onset": 26
    },
    {
        "date": 25.806417233,
        "onset": 27
    },
    {
        "date": 26.773356009,
        "onset": 28
    },
    {
        "date": 27.750136054,
        "onset": 29
    },
    {
        "date": 28.630204081,
        "onset": 30
    },
    {
        "date": 29.529977324,
        "onset": 31
    },
    {
        "date": 30.520544217,
        "onset": 32
    },
    {
        "date": 31.382108843,
        "onset": 33
    },
    {
        "date": 32.303741496,
        "onset": 34
    },
    {
        "date": 33.230226757,
        "onset": 35
    },
    {
        "date": 34.202993197,
        "onset": 36
    },
    {
        "date": 35.084013605,
        "onset": 37
    },
    {
        "date": 36.095419501,
        "onset": 38
    },
    {
        "date": 37.017959183,
        "onset": 39
    },
    {
        "date": 37.963174603,
        "onset": 40
    },
    {
        "date": 38.806349206,
        "onset": 41
    },
    {
        "date": 39.682902494,
        "onset": 42
    },
    {
        "date": 40.701428571,
        "onset": 43
    },
    {
        "date": 41.718548752,
        "onset": 44
    },
    {
        "date": 42.705895691,
        "onset": 45
    },
    {
        "date": 43.607074829,
        "onset": 46
    },
    {
        "date": 44.489659863,
        "onset": 47
    },
    {
        "date": 45.456575963,
        "onset": 48
    },
    {
        "date": 46.306394557,
        "onset": 49
    },
    {
        "date": 47.113287981,
        "onset": 50
    },
    {
        "date": 48.051496598,
        "onset": 51
    },
    {
        "date": 49.013514739,
        "onset": 52
    },
    {
        "date": 50.050612244,
        "onset": 53
    },
    {
        "date": 50.877528344,
        "onset": 54
    },
    {
        "date": 51.815328798,
        "onset": 55
    },
    {
        "date": 52.776394557,
        "onset": 56
    },
    {
        "date": 53.778299319,
        "onset": 57
    },
    {
        "date": 54.740498866,
        "onset": 58
    },
    {
        "date": 55.692131519,
        "onset": 59
    },
    {
        "date": 56.726349206,
        "onset": 60
    },
    {
        "date": 57.680839002,
        "onset": 61
    },
    {
        "date": 58.641995464,
        "onset": 62
    },
    {
        "date": 59.640453514,
        "onset": 63
    },
    {
        "date": 60.725986394,
        "onset": 64
    },
    {
        "date": 61.579319727,
        "onset": 65
    },
    {
        "date": 62.564557823,
        "onset": 66
    },
    {
        "date": 63.536122448,
        "onset": 67
    },
    {
        "date": 64.473333333,
        "onset": 68
    },
    {
        "date": 65.34095238,
        "onset": 69
    },
    {
        "date": 66.261632653,
        "onset": 70
    },
    {
        "date": 67.221768707,
        "onset": 71
    },
    {
        "date": 68.20526077,
        "onset": 72
    },
    {
        "date": 69.061950113,
        "onset": 73
    },
    {
        "date": 70.018820861,
        "onset": 74
    },
    {
        "date": 70.975963718,
        "onset": 75
    },
    {
        "date": 71.958231292,
        "onset": 76
    },
    {
        "date": 72.846802721,
        "onset": 77
    },
    {
        "date": 73.63047619,
        "onset": 78
    },
    {
        "date": 74.478004535,
        "onset": 79
    },
    {
        "date": 75.342947845,
        "onset": 80
    },
    {
        "date": 76.242721088,
        "onset": 81
    },
    {
        "date": 77.190272108,
        "onset": 82
    },
    {
        "date": 78.132585034,
        "onset": 83
    },
    {
        "date": 79.133605442,
        "onset": 84
    },
    {
        "date": 80.219138321,
        "onset": 85
    },
    {
        "date": 81.085804988,
        "onset": 86
    },
    {
        "date": 82.0030839,
        "onset": 87
    },
    {
        "date": 82.999727891,
        "onset": 88
    },
    {
        "date": 84.050430839,
        "onset": 89
    },
    {
        "date": 84.90956916,
        "onset": 90
    },
    {
        "date": 85.739682539,
        "onset": 91
    },
    {
        "date": 86.588412698,
        "onset": 92
    },
    {
        "date": 87.417324263,
        "onset": 93
    },
    {
        "date": 88.236417233,
        "onset": 94
    },
    {
        "date": 89.082993197,
        "onset": 95
    },
    {
        "date": 89.954104308,
        "onset": 96
    },
    {
        "date": 90.897120181,
        "onset": 97
    },
    {
        "date": 91.869138321,
        "onset": 98
    },
    {
        "date": 92.851156462,
        "onset": 99
    },
    {
        "date": 93.882585034,
        "onset": 100
    },
    {
        "date": 94.939546485,
        "onset": 101
    },
    {
        "date": 96.066757369,
        "onset": 102
    },
    {
        "date": 97.332244897,
        "onset": 103
    },
    {
        "date": 98.835736961,
        "onset": 104
    }
]