0.667573696,1.1
1.291609977,1.2
1.934693877,1.3
2.643922902,1.4
3.407823129,2.1
4.089795918,2.2
4.751020408,2.3
5.395918367,2.4
6.024557823,3.1
6.710204081,3.2
7.343310657,3.3
8.034104308,3.4
8.710385487,4.1
9.351836734,4.2
9.964263038,4.3
10.599909297,4.4
11.229750566,5.1
11.877006802,5.2
12.495238095,5.3
13.146213151,5.4
13.807800453,6.1
14.473968253,6.2
15.118367346,6.3
15.782335600,6.4
16.465306122,7.1
17.101496598,7.2
17.722630385,7.3
18.361179138,7.4
19.005532879,8.1
19.675646258,8.2
20.305850340,8.3
20.973446712,8.4
21.648979591,9.1
22.285714285,9.2
22.932607709,9.3
23.588571428,9.4
24.265170068,10.1
24.966870748,10.2
25.591292517,10.3
26.229682539,10.4
26.873469387,11.1
27.556281179,11.2
28.206439909,11.3
28.881632653,11.4
29.583673469,12.1
30.244897959,12.2
30.928979591,12.3
31.590068027,12.4
32.217165532,13.1
32.847528344,13.2
33.509297052,13.3
34.154444444,13.4
34.785555555,14.1
35.436734693,14.2
36.086712018,14.3
36.759433106,14.4
37.395736961,15.1
38.089795918,15.2
38.688049886,15.3
39.364285714,15.4
40.016689342,16.1
40.696734693,16.2
41.328616780,16.3
42.008662131,16.4
42.666666666,17.1
43.328820861,17.2
43.978594104,17.3
44.673219954,17.4
45.299229024,18.1
45.980340136,18.2
46.631473922,18.3
47.290340136,18.4
47.905668934,19.1
48.549954648,19.2
49.182766439,19.3
49.824217687,19.4
50.477278911,20.1
51.133832199,20.2
51.768888888,20.3
52.421950113,20.4
53.106938775,21.1
53.771428571,21.2
54.424671201,21.3
55.080544217,21.4
55.741609977,22.1
56.398367346,22.2
57.039818594,22.3
57.707392290,22.4
58.351746031,23.1
59.028027210,23.2
59.657868480,23.3
60.322539682,23.4
60.975600907,24.1
61.640272108,24.2
62.310204081,24.3
62.931882086,24.4
63.565532879,25.1
64.242585034,25.2
64.889387755,25.3
65.525941043,25.4
66.192358276,26.1
66.858616780,26.2
67.530204081,26.3
68.191723356,26.4
68.843197278,27.1
69.502040816,27.2
70.130068027,27.3
70.803446712,27.4
71.433287981,28.1
72.114285714,28.2
72.771337868,28.3
73.412789115,28.4
74.083265306,29.1
74.756643990,29.2
75.429024943,29.3
76.120226757,29.4
76.794920634,30.1
77.458276643,30.2
78.099092970,30.3
78.785306122,30.4
79.462993197,31.1
80.179591836,31.2
80.841383219,31.3
81.502040816,31.4
82.152199546,32.1
82.802358276,32.2
83.467029478,32.3
84.152018140,32.4
84.834104308,33.1
85.561814058,33.2
86.222675736,33.3
86.860045351,33.4
87.518911564,34.1
88.166167800,34.2
88.847936507,34.3
89.604875283,34.4
90.351746031,35.1
91.097823129,35.2
91.863945578,35.3
92.565827664,35.4
93.170068027,36.1
93.826031746,36.2
94.559342403,36.3
95.320748299,36.4
96.035124716,37.1
96.690793650,37.2
97.464761904,37.3
98.339410430,37.4
