{
    "bars": [
        280.0,
        536.397530984997,
        785.8426136116545,
        1082.469125353341,
        1349.6982772704189,
        1654.8337262085922,
        1971.7491077408145,
        2247.9909566210044,
        2522.1569969921006,
        2849.9986374936607,
        3171.9398351453196,
        3464.452231245921,
        3737.379327643691,
        4051.3502158077845,
        4377.81736156411,
        4660.648370841492,
        4940.785656048418,
        5264.498042001891,
        5588.693033304354,
        5910.425870805259,
        6201.548052728875,
        6478.500200659582,
        6796.7787328767345,
        7116.811882474482,
        7442.716175255526,
        7735.158313763898,
        8065.156234978692,
        8325.867240921994,
        8590.878808654108,
        8876.755111654795,
        9135.421113974126,
        9333.450239871083
    ],
    "onset-x": [
        {
            "onset": 0.0,
            "x": 296.34730593607304
        },
        {
            "onset": 0.5,
            "x": 321.4774885844749
        },
        {
            "onset": 0.75,
            "x": 343.92963470319637
        },
        {
            "onset": 1.0,
            "x": 362.9875646879757
        },
        {
            "onset": 1.5,
            "x": 389.2753272450533
        },
        {
            "onset": 2.0,
            "x": 417.60460752337445
        },
        {
            "onset": 2.5,
            "x": 447.6975451185038
        },
        {
            "onset": 2.75,
            "x": 466.7554751032832
        },
        {
            "onset": 3.0,
            "x": 485.8134050880624
        },
        {
            "onset": 3.5,
            "x": 514.0037551641659
        },
        {
            "onset": 4.0,
            "x": 549.6775918677976
        },
        {
            "onset": 4.5,
            "x": 579.0255218525768
        },
        {
            "onset": 4.75,
            "x": 601.4350500108721
        },
        {
            "onset": 5.0,
            "x": 620.631910197869
        },
        {
            "onset": 5.5,
            "x": 648.8222602739727
        },
        {
            "onset": 6.0,
            "x": 674.6992944118289
        },
        {
            "onset": 6.25,
            "x": 693.7572243966081
        },
        {
            "onset": 6.5,
            "x": 712.8151543813874
        },
        {
            "onset": 7.5,
            "x": 750.1379245488151
        },
        {
            "onset": 7.75,
            "x": 769.1958545335945
        },
        {
            "onset": 8.0,
            "x": 797.7988769297672
        },
        {
            "onset": 8.25,
            "x": 819.3381843879102
        },
        {
            "onset": 8.5,
            "x": 841.7477125462057
        },
        {
            "onset": 8.75,
            "x": 867.2744400956727
        },
        {
            "onset": 9.0,
            "x": 886.332370080452
        },
        {
            "onset": 9.25,
            "x": 905.3903000652313
        },
        {
            "onset": 9.5,
            "x": 924.4482300500107
        },
        {
            "onset": 9.75,
            "x": 943.5061600347901
        },
        {
            "onset": 10.0,
            "x": 962.5640900195679
        },
        {
            "onset": 10.5,
            "x": 992.6570276146955
        },
        {
            "onset": 10.75,
            "x": 1011.7149575994749
        },
        {
            "onset": 11.0,
            "x": 1030.772887584254
        },
        {
            "onset": 11.5,
            "x": 1058.9632376603577
        },
        {
            "onset": 12.0,
            "x": 1096.2423727259513
        },
        {
            "onset": 12.5,
            "x": 1125.384016561568
        },
        {
            "onset": 12.75,
            "x": 1150.910744111035
        },
        {
            "onset": 13.0,
            "x": 1169.9686740958143
        },
        {
            "onset": 13.5,
            "x": 1198.159024171918
        },
        {
            "onset": 14.0,
            "x": 1224.5132207363924
        },
        {
            "onset": 14.25,
            "x": 1243.571150721172
        },
        {
            "onset": 14.5,
            "x": 1262.6290807059515
        },
        {
            "onset": 15.0,
            "x": 1290.819430782055
        },
        {
            "onset": 15.5,
            "x": 1317.1071933391324
        },
        {
            "onset": 15.75,
            "x": 1336.165123323912
        },
        {
            "onset": 16.0,
            "x": 1363.0366474958296
        },
        {
            "onset": 16.5,
            "x": 1393.1295850909592
        },
        {
            "onset": 16.75,
            "x": 1412.1875150757382
        },
        {
            "onset": 17.0,
            "x": 1431.2454450605176
        },
        {
            "onset": 17.25,
            "x": 1449.5102548017655
        },
        {
            "onset": 17.5,
            "x": 1468.568184786545
        },
        {
            "onset": 17.75,
            "x": 1487.6261147713244
        },
        {
            "onset": 18.0,
            "x": 1506.6840447561035
        },
        {
            "onset": 18.25,
            "x": 1525.7419747408828
        },
        {
            "onset": 18.5,
            "x": 1544.7999047256621
        },
        {
            "onset": 18.75,
            "x": 1563.8578347104415
        },
        {
            "onset": 19.0,
            "x": 1582.9157646952208
        },
        {
            "onset": 19.25,
            "x": 1600.0711071609744
        },
        {
            "onset": 19.5,
            "x": 1619.1290371457535
        },
        {
            "onset": 19.75,
            "x": 1638.1869671305328
        },
        {
            "onset": 20.0,
            "x": 1668.172096434003
        },
        {
            "onset": 20.25,
            "x": 1690.5816245922983
        },
        {
            "onset": 20.5,
            "x": 1709.6395545770777
        },
        {
            "onset": 20.75,
            "x": 1728.6974845618572
        },
        {
            "onset": 21.0,
            "x": 1747.7554145466365
        },
        {
            "onset": 21.25,
            "x": 1764.9107570123897
        },
        {
            "onset": 21.5,
            "x": 1783.968686997169
        },
        {
            "onset": 21.75,
            "x": 1803.0266169819486
        },
        {
            "onset": 22.0,
            "x": 1827.1835576212177
        },
        {
            "onset": 22.25,
            "x": 1846.2414876059972
        },
        {
            "onset": 22.5,
            "x": 1865.2994175907763
        },
        {
            "onset": 22.75,
            "x": 1884.3573475755557
        },
        {
            "onset": 23.0,
            "x": 1903.415277560335
        },
        {
            "onset": 23.5,
            "x": 1933.5082151554643
        },
        {
            "onset": 23.75,
            "x": 1955.9177433137597
        },
        {
            "onset": 24.0,
            "x": 1985.9572322606393
        },
        {
            "onset": 24.5,
            "x": 2012.990002428067
        },
        {
            "onset": 24.75,
            "x": 2035.4421485467888
        },
        {
            "onset": 25.0,
            "x": 2054.4306134304566
        },
        {
            "onset": 25.25,
            "x": 2073.4885434152366
        },
        {
            "onset": 25.5,
            "x": 2092.546473400015
        },
        {
            "onset": 25.75,
            "x": 2111.6044033847948
        },
        {
            "onset": 26.0,
            "x": 2130.662333369574
        },
        {
            "onset": 26.5,
            "x": 2159.349355185906
        },
        {
            "onset": 26.75,
            "x": 2178.407285170685
        },
        {
            "onset": 27.0,
            "x": 2197.465215155464
        },
        {
            "onset": 27.5,
            "x": 2225.655565231568
        },
        {
            "onset": 28.0,
            "x": 2261.981642567222
        },
        {
            "onset": 28.5,
            "x": 2290.034468543889
        },
        {
            "onset": 28.75,
            "x": 2312.48661466261
        },
        {
            "onset": 29.0,
            "x": 2331.54454464739
        },
        {
            "onset": 29.5,
            "x": 2359.7348947234927
        },
        {
            "onset": 30.0,
            "x": 2387.291048959916
        },
        {
            "onset": 30.25,
            "x": 2406.3489789446962
        },
        {
            "onset": 30.5,
            "x": 2425.4069089294753
        },
        {
            "onset": 30.75,
            "x": 2444.4648389142544
        },
        {
            "onset": 31.0,
            "x": 2463.5227688990335
        },
        {
            "onset": 31.5,
            "x": 2489.810531456111
        },
        {
            "onset": 31.75,
            "x": 2508.8684614408903
        },
        {
            "onset": 32.0,
            "x": 2535.7128057911114
        },
        {
            "onset": 32.25,
            "x": 2556.6733232949164
        },
        {
            "onset": 32.5,
            "x": 2579.125469413638
        },
        {
            "onset": 32.75,
            "x": 2604.6521969631053
        },
        {
            "onset": 33.0,
            "x": 2623.7101269478844
        },
        {
            "onset": 33.25,
            "x": 2642.7680569326635
        },
        {
            "onset": 33.5,
            "x": 2661.825986917443
        },
        {
            "onset": 33.75,
            "x": 2680.8839169022226
        },
        {
            "onset": 34.0,
            "x": 2699.9418468870017
        },
        {
            "onset": 34.25,
            "x": 2718.9997768717813
        },
        {
            "onset": 34.5,
            "x": 2738.0577068565603
        },
        {
            "onset": 34.75,
            "x": 2757.1156368413394
        },
        {
            "onset": 35.0,
            "x": 2775.5253117706775
        },
        {
            "onset": 35.25,
            "x": 2795.1620317097945
        },
        {
            "onset": 35.5,
            "x": 2814.219961694574
        },
        {
            "onset": 35.75,
            "x": 2833.2778916793527
        },
        {
            "onset": 36.0,
            "x": 2864.192266108577
        },
        {
            "onset": 36.25,
            "x": 2885.1527836123823
        },
        {
            "onset": 36.5,
            "x": 2904.210713597162
        },
        {
            "onset": 36.75,
            "x": 2926.6628597158824
        },
        {
            "onset": 37.0,
            "x": 2945.720789700663
        },
        {
            "onset": 37.25,
            "x": 2964.778719685441
        },
        {
            "onset": 37.5,
            "x": 2983.836649670221
        },
        {
            "onset": 37.75,
            "x": 3002.8945796550006
        },
        {
            "onset": 38.0,
            "x": 3021.8135794375576
        },
        {
            "onset": 38.25,
            "x": 3040.8715094223367
        },
        {
            "onset": 38.5,
            "x": 3059.9294394071158
        },
        {
            "onset": 38.75,
            "x": 3078.9873693918953
        },
        {
            "onset": 39.0,
            "x": 3097.4665094223365
        },
        {
            "onset": 39.25,
            "x": 3117.1032293614535
        },
        {
            "onset": 39.5,
            "x": 3136.161159346233
        },
        {
            "onset": 39.75,
            "x": 3155.2190893310126
        },
        {
            "onset": 40.0,
            "x": 3185.9305210915372
        },
        {
            "onset": 40.25,
            "x": 3206.8910385953423
        },
        {
            "onset": 40.5,
            "x": 3225.948968580122
        },
        {
            "onset": 40.75,
            "x": 3245.006898564901
        },
        {
            "onset": 41.0,
            "x": 3264.0648285496804
        },
        {
            "onset": 41.25,
            "x": 3288.22176918895
        },
        {
            "onset": 41.5,
            "x": 3307.279699173729
        },
        {
            "onset": 41.75,
            "x": 3326.3376291585087
        },
        {
            "onset": 42.0,
            "x": 3345.395559143288
        },
        {
            "onset": 42.5,
            "x": 3374.8543008987444
        },
        {
            "onset": 42.75,
            "x": 3393.9122308835235
        },
        {
            "onset": 43.0,
            "x": 3412.970160868303
        },
        {
            "onset": 43.5,
            "x": 3441.1605109444067
        },
        {
            "onset": 44.0,
            "x": 3478.442917192139
        },
        {
            "onset": 44.5,
            "x": 3506.495743168806
        },
        {
            "onset": 44.75,
            "x": 3525.553673153585
        },
        {
            "onset": 45.0,
            "x": 3544.611603138364
        },
        {
            "onset": 45.5,
            "x": 3572.801953214467
        },
        {
            "onset": 46.0,
            "x": 3599.587002138143
        },
        {
            "onset": 46.25,
            "x": 3618.644932122923
        },
        {
            "onset": 46.5,
            "x": 3637.841792309924
        },
        {
            "onset": 46.75,
            "x": 3656.8997222947037
        },
        {
            "onset": 47.0,
            "x": 3675.9576522794828
        },
        {
            "onset": 47.5,
            "x": 3702.2454148365605
        },
        {
            "onset": 47.75,
            "x": 3721.30334482134
        },
        {
            "onset": 48.0,
            "x": 3750.935136442702
        },
        {
            "onset": 48.25,
            "x": 3768.0904789084557
        },
        {
            "onset": 48.5,
            "x": 3787.148408893235
        },
        {
            "onset": 48.75,
            "x": 3806.206338878014
        },
        {
            "onset": 49.0,
            "x": 3825.403199065015
        },
        {
            "onset": 49.25,
            "x": 3844.4611290497955
        },
        {
            "onset": 49.5,
            "x": 3863.5190590345746
        },
        {
            "onset": 49.75,
            "x": 3882.5769890193533
        },
        {
            "onset": 50.0,
            "x": 3901.6349190041324
        },
        {
            "onset": 50.25,
            "x": 3920.6928489889115
        },
        {
            "onset": 50.5,
            "x": 3939.750778973691
        },
        {
            "onset": 50.75,
            "x": 3958.80870895847
        },
        {
            "onset": 51.0,
            "x": 3977.8666389432497
        },
        {
            "onset": 51.25,
            "x": 3996.9245689280297
        },
        {
            "onset": 51.5,
            "x": 4015.9824989128088
        },
        {
            "onset": 51.75,
            "x": 4038.4346450315306
        },
        {
            "onset": 52.0,
            "x": 4065.6537694788744
        },
        {
            "onset": 52.25,
            "x": 4082.809111944628
        },
        {
            "onset": 52.5,
            "x": 4101.867041929407
        },
        {
            "onset": 52.75,
            "x": 4120.924971914186
        },
        {
            "onset": 53.0,
            "x": 4139.982901898965
        },
        {
            "onset": 53.25,
            "x": 4159.040831883744
        },
        {
            "onset": 53.5,
            "x": 4178.098761868523
        },
        {
            "onset": 53.75,
            "x": 4200.5509079872445
        },
        {
            "onset": 54.0,
            "x": 4219.608837972024
        },
        {
            "onset": 54.25,
            "x": 4243.765778611294
        },
        {
            "onset": 54.5,
            "x": 4262.823708596074
        },
        {
            "onset": 54.75,
            "x": 4281.881638580853
        },
        {
            "onset": 55.0,
            "x": 4300.939568565633
        },
        {
            "onset": 55.25,
            "x": 4319.9974985504105
        },
        {
            "onset": 55.5,
            "x": 4342.449644669133
        },
        {
            "onset": 55.75,
            "x": 4364.901790787855
        },
        {
            "onset": 56.0,
            "x": 4391.454103609483
        },
        {
            "onset": 56.5,
            "x": 4420.2786495252585
        },
        {
            "onset": 56.75,
            "x": 4445.8053770747265
        },
        {
            "onset": 57.0,
            "x": 4464.863307059506
        },
        {
            "onset": 57.25,
            "x": 4483.921237044285
        },
        {
            "onset": 57.5,
            "x": 4502.979167029064
        },
        {
            "onset": 57.75,
            "x": 4522.037097013844
        },
        {
            "onset": 58.0,
            "x": 4541.095026998622
        },
        {
            "onset": 58.5,
            "x": 4569.782048814962
        },
        {
            "onset": 58.75,
            "x": 4588.8399787997405
        },
        {
            "onset": 59.0,
            "x": 4607.897908784521
        },
        {
            "onset": 59.5,
            "x": 4636.088258860625
        },
        {
            "onset": 60.0,
            "x": 4673.986741066904
        },
        {
            "onset": 60.5,
            "x": 4702.039567043562
        },
        {
            "onset": 60.75,
            "x": 4727.56629459303
        },
        {
            "onset": 61.0,
            "x": 4746.6242245778085
        },
        {
            "onset": 61.5,
            "x": 4774.814574653911
        },
        {
            "onset": 62.0,
            "x": 4801.780822388927
        },
        {
            "onset": 62.25,
            "x": 4820.8387523737065
        },
        {
            "onset": 62.5,
            "x": 4839.896682358485
        },
        {
            "onset": 62.75,
            "x": 4858.954612343266
        },
        {
            "onset": 63.0,
            "x": 4878.012542328043
        },
        {
            "onset": 63.5,
            "x": 4905.251598644635
        },
        {
            "onset": 63.75,
            "x": 4924.309528629415
        },
        {
            "onset": 64.0,
            "x": 4953.689149126629
        },
        {
            "onset": 64.5,
            "x": 4983.147890882077
        },
        {
            "onset": 64.75,
            "x": 5005.6000370008
        },
        {
            "onset": 65.0,
            "x": 5024.657966985579
        },
        {
            "onset": 65.25,
            "x": 5042.922776726828
        },
        {
            "onset": 65.5,
            "x": 5064.753514930784
        },
        {
            "onset": 65.75,
            "x": 5090.85903243459
        },
        {
            "onset": 66.0,
            "x": 5109.338172465031
        },
        {
            "onset": 66.25,
            "x": 5132.326490577663
        },
        {
            "onset": 66.5,
            "x": 5151.384420562443
        },
        {
            "onset": 66.75,
            "x": 5170.442350547222
        },
        {
            "onset": 67.0,
            "x": 5189.500280532002
        },
        {
            "onset": 67.25,
            "x": 5206.655622997763
        },
        {
            "onset": 67.5,
            "x": 5228.48636120172
        },
        {
            "onset": 67.75,
            "x": 5248.123081140838
        },
        {
            "onset": 68.0,
            "x": 5282.131626476774
        },
        {
            "onset": 68.25,
            "x": 5301.768346415898
        },
        {
            "onset": 68.5,
            "x": 5320.826276400678
        },
        {
            "onset": 68.75,
            "x": 5343.278422519399
        },
        {
            "onset": 69.0,
            "x": 5362.336352504179
        },
        {
            "onset": 69.25,
            "x": 5387.863080053646
        },
        {
            "onset": 69.5,
            "x": 5406.342220084088
        },
        {
            "onset": 69.75,
            "x": 5425.978940023204
        },
        {
            "onset": 70.0,
            "x": 5444.458080053646
        },
        {
            "onset": 70.5,
            "x": 5471.1183464158985
        },
        {
            "onset": 70.75,
            "x": 5490.176276400677
        },
        {
            "onset": 71.0,
            "x": 5509.234206385458
        },
        {
            "onset": 71.25,
            "x": 5527.499016126705
        },
        {
            "onset": 71.5,
            "x": 5549.329754330663
        },
        {
            "onset": 71.75,
            "x": 5572.318072443296
        },
        {
            "onset": 72.0,
            "x": 5601.23517500182
        },
        {
            "onset": 72.25,
            "x": 5620.871894940936
        },
        {
            "onset": 72.5,
            "x": 5639.929824925716
        },
        {
            "onset": 72.75,
            "x": 5658.987754910495
        },
        {
            "onset": 73.0,
            "x": 5678.045684895274
        },
        {
            "onset": 73.25,
            "x": 5700.45521305357
        },
        {
            "onset": 73.5,
            "x": 5718.934353084018
        },
        {
            "onset": 73.75,
            "x": 5738.571073023137
        },
        {
            "onset": 74.0,
            "x": 5757.189143255791
        },
        {
            "onset": 74.25,
            "x": 5776.825863194908
        },
        {
            "onset": 74.5,
            "x": 5795.883793179688
        },
        {
            "onset": 74.75,
            "x": 5814.9417231644675
        },
        {
            "onset": 75.0,
            "x": 5834.069118250358
        },
        {
            "onset": 75.25,
            "x": 5856.478646408654
        },
        {
            "onset": 75.5,
            "x": 5874.957786439094
        },
        {
            "onset": 75.75,
            "x": 5894.594506378213
        },
        {
            "onset": 76.0,
            "x": 5923.4028896499385
        },
        {
            "onset": 76.25,
            "x": 5944.942197108084
        },
        {
            "onset": 76.5,
            "x": 5964.0001270928615
        },
        {
            "onset": 76.75,
            "x": 5986.452273211584
        },
        {
            "onset": 77.0,
            "x": 6005.510203196362
        },
        {
            "onset": 77.25,
            "x": 6024.568133181142
        },
        {
            "onset": 77.5,
            "x": 6043.626063165922
        },
        {
            "onset": 77.75,
            "x": 6062.6839931507
        },
        {
            "onset": 78.0,
            "x": 6081.741923135479
        },
        {
            "onset": 78.5,
            "x": 6110.566469051263
        },
        {
            "onset": 78.75,
            "x": 6129.624399036043
        },
        {
            "onset": 79.0,
            "x": 6148.682329020822
        },
        {
            "onset": 79.5,
            "x": 6176.872679096925
        },
        {
            "onset": 80.0,
            "x": 6214.083106001324
        },
        {
            "onset": 80.5,
            "x": 6242.135931977983
        },
        {
            "onset": 80.75,
            "x": 6264.545460136278
        },
        {
            "onset": 81.0,
            "x": 6283.7423203232765
        },
        {
            "onset": 81.5,
            "x": 6311.932670399376
        },
        {
            "onset": 82.0,
            "x": 6339.351915162732
        },
        {
            "onset": 82.25,
            "x": 6358.409845147512
        },
        {
            "onset": 82.5,
            "x": 6377.467775132291
        },
        {
            "onset": 82.75,
            "x": 6396.52570511707
        },
        {
            "onset": 83.0,
            "x": 6415.58363510185
        },
        {
            "onset": 83.5,
            "x": 6442.822691418441
        },
        {
            "onset": 83.75,
            "x": 6461.88062140322
        },
        {
            "onset": 84.0,
            "x": 6491.621132311393
        },
        {
            "onset": 84.25,
            "x": 6510.679062296173
        },
        {
            "onset": 84.5,
            "x": 6529.736992280952
        },
        {
            "onset": 84.75,
            "x": 6552.146520439248
        },
        {
            "onset": 85.0,
            "x": 6571.134985322915
        },
        {
            "onset": 85.25,
            "x": 6590.192915307694
        },
        {
            "onset": 85.5,
            "x": 6609.250845292474
        },
        {
            "onset": 85.75,
            "x": 6628.308775277253
        },
        {
            "onset": 86.0,
            "x": 6647.366705262032
        },
        {
            "onset": 86.25,
            "x": 6668.327222765838
        },
        {
            "onset": 86.5,
            "x": 6687.385152750618
        },
        {
            "onset": 86.75,
            "x": 6706.443082735404
        },
        {
            "onset": 87.0,
            "x": 6724.922222765845
        },
        {
            "onset": 87.25,
            "x": 6744.558942704962
        },
        {
            "onset": 87.5,
            "x": 6763.616872689741
        },
        {
            "onset": 87.75,
            "x": 6782.674802674521
        },
        {
            "onset": 88.0,
            "x": 6809.313786149187
        },
        {
            "onset": 88.25,
            "x": 6828.3717161339655
        },
        {
            "onset": 88.5,
            "x": 6847.429646118744
        },
        {
            "onset": 88.75,
            "x": 6869.83917427704
        },
        {
            "onset": 89.0,
            "x": 6888.897104261819
        },
        {
            "onset": 89.25,
            "x": 6907.955034246598
        },
        {
            "onset": 89.5,
            "x": 6927.012964231379
        },
        {
            "onset": 89.75,
            "x": 6946.070894216157
        },
        {
            "onset": 90.0,
            "x": 6965.128824200944
        },
        {
            "onset": 90.25,
            "x": 6986.08934170475
        },
        {
            "onset": 90.5,
            "x": 7005.147271689528
        },
        {
            "onset": 90.75,
            "x": 7024.205201674307
        },
        {
            "onset": 91.0,
            "x": 7042.684341704749
        },
        {
            "onset": 91.25,
            "x": 7062.321061643866
        },
        {
            "onset": 91.5,
            "x": 7081.378991628645
        },
        {
            "onset": 91.75,
            "x": 7100.436921613425
        },
        {
            "onset": 92.0,
            "x": 7129.346935746934
        },
        {
            "onset": 92.25,
            "x": 7148.404865731713
        },
        {
            "onset": 92.5,
            "x": 7167.462795716492
        },
        {
            "onset": 92.75,
            "x": 7186.520725701271
        },
        {
            "onset": 93.0,
            "x": 7205.648120787162
        },
        {
            "onset": 93.25,
            "x": 7228.100266905883
        },
        {
            "onset": 93.5,
            "x": 7247.158196890662
        },
        {
            "onset": 93.75,
            "x": 7265.26483311593
        },
        {
            "onset": 94.0,
            "x": 7284.160272885441
        },
        {
            "onset": 94.25,
            "x": 7304.9816465536305
        },
        {
            "onset": 94.5,
            "x": 7324.03957653841
        },
        {
            "onset": 94.75,
            "x": 7343.097506523189
        },
        {
            "onset": 95.0,
            "x": 7362.155436507967
        },
        {
            "onset": 95.25,
            "x": 7381.213366492748
        },
        {
            "onset": 95.5,
            "x": 7403.622894651042
        },
        {
            "onset": 95.75,
            "x": 7426.032422809338
        },
        {
            "onset": 96.0,
            "x": 7460.885931724323
        },
        {
            "onset": 96.5,
            "x": 7490.027575559939
        },
        {
            "onset": 96.75,
            "x": 7509.085505544719
        },
        {
            "onset": 97.0,
            "x": 7527.5646455751585
        },
        {
            "onset": 97.5,
            "x": 7554.224911937412
        },
        {
            "onset": 98.0,
            "x": 7582.415262013517
        },
        {
            "onset": 98.25,
            "x": 7600.680071754764
        },
        {
            "onset": 98.5,
            "x": 7623.08959991306
        },
        {
            "onset": 98.75,
            "x": 7645.499128071355
        },
        {
            "onset": 99.0,
            "x": 7664.695988258349
        },
        {
            "onset": 99.25,
            "x": 7683.7539182431365
        },
        {
            "onset": 99.5,
            "x": 7702.811848227915
        },
        {
            "onset": 99.75,
            "x": 7721.869778212694
        },
        {
            "onset": 100.0,
            "x": 7749.148999710123
        },
        {
            "onset": 100.25,
            "x": 7768.206929694901
        },
        {
            "onset": 100.5,
            "x": 7789.167447198707
        },
        {
            "onset": 100.75,
            "x": 7808.225377183486
        },
        {
            "onset": 101.0,
            "x": 7827.283307168264
        },
        {
            "onset": 101.25,
            "x": 7846.341237153046
        },
        {
            "onset": 101.5,
            "x": 7865.399167137823
        },
        {
            "onset": 101.75,
            "x": 7884.457097122604
        },
        {
            "onset": 102.0,
            "x": 7906.866625280899
        },
        {
            "onset": 102.25,
            "x": 7927.827142784703
        },
        {
            "onset": 102.5,
            "x": 7946.885072769483
        },
        {
            "onset": 102.75,
            "x": 7965.943002754261
        },
        {
            "onset": 103.0,
            "x": 7984.9314676379
        },
        {
            "onset": 103.25,
            "x": 8007.340995796195
        },
        {
            "onset": 103.5,
            "x": 8029.750523954491
        },
        {
            "onset": 103.75,
            "x": 8048.80845393927
        },
        {
            "onset": 104.0,
            "x": 8078.712043777704
        },
        {
            "onset": 104.5,
            "x": 8108.804981372831
        },
        {
            "onset": 104.75,
            "x": 8131.214509531127
        },
        {
            "onset": 105.0,
            "x": 8150.272439515906
        },
        {
            "onset": 105.5,
            "x": 8178.4627895920075
        },
        {
            "onset": 106.0,
            "x": 8205.44015387405
        },
        {
            "onset": 106.5,
            "x": 8234.0717698051
        },
        {
            "onset": 106.75,
            "x": 8253.129699789879
        },
        {
            "onset": 107.0,
            "x": 8272.187629774657
        },
        {
            "onset": 107.5,
            "x": 8300.37797985076
        },
        {
            "onset": 108.0,
            "x": 8344.036997390793
        },
        {
            "onset": 108.25,
            "x": 8363.094927375572
        },
        {
            "onset": 108.5,
            "x": 8382.15285736035
        },
        {
            "onset": 108.75,
            "x": 8401.21078734513
        },
        {
            "onset": 109.0,
            "x": 8420.26871732991
        },
        {
            "onset": 109.5,
            "x": 8446.556479886985
        },
        {
            "onset": 109.75,
            "x": 8465.614409871767
        },
        {
            "onset": 110.0,
            "x": 8484.672339856545
        },
        {
            "onset": 110.5,
            "x": 8512.862689932648
        },
        {
            "onset": 111.0,
            "x": 8539.895460100077
        },
        {
            "onset": 111.5,
            "x": 8566.928230267506
        },
        {
            "onset": 112.0,
            "x": 8609.091183083334
        },
        {
            "onset": 112.25,
            "x": 8626.246525549086
        },
        {
            "onset": 112.5,
            "x": 8645.304455533867
        },
        {
            "onset": 112.75,
            "x": 8662.459797999618
        },
        {
            "onset": 113.0,
            "x": 8681.517727984397
        },
        {
            "onset": 113.25,
            "x": 8700.575657969179
        },
        {
            "onset": 113.5,
            "x": 8719.633587953958
        },
        {
            "onset": 113.75,
            "x": 8738.691517938738
        },
        {
            "onset": 114.0,
            "x": 8757.842210480594
        },
        {
            "onset": 114.5,
            "x": 8787.842385518647
        },
        {
            "onset": 114.75,
            "x": 8806.900315503426
        },
        {
            "onset": 115.0,
            "x": 8825.958245488204
        },
        {
            "onset": 115.5,
            "x": 8852.039721896119
        },
        {
            "onset": 116.0,
            "x": 8890.710378669306
        },
        {
            "onset": 116.5,
            "x": 8919.968980901675
        },
        {
            "onset": 116.75,
            "x": 8942.421127020396
        },
        {
            "onset": 117.0,
            "x": 8961.479057005175
        },
        {
            "onset": 117.5,
            "x": 8988.511827172604
        },
        {
            "onset": 118.0,
            "x": 9015.81731749665
        },
        {
            "onset": 118.5,
            "x": 9044.95896133227
        },
        {
            "onset": 118.75,
            "x": 9064.016891317047
        },
        {
            "onset": 119.0,
            "x": 9083.144286402892
        },
        {
            "onset": 119.5,
            "x": 9111.334636478998
        },
        {
            "onset": 120.0,
            "x": 9154.216621964993
        },
        {
            "onset": 120.25,
            "x": 9172.648800427702
        },
        {
            "onset": 120.5,
            "x": 9191.706730412483
        },
        {
            "onset": 121.0,
            "x": 9217.581920671233
        },
        {
            "onset": 121.5,
            "x": 9245.772270747337
        },
        {
            "onset": 121.75,
            "x": 9264.830200732116
        },
        {
            "onset": 122.0,
            "x": 9287.518016561646
        }
    ],
    "staffs": [
        {
            "bottom": 102.9,
            "notespos": [],
            "top": 0
        },
        {
            "bottom": 210.9,
            "notespos": [],
            "top": 108
        },
        {
            "bottom": 319.9,
            "notespos": [],
            "top": 216
        }
    ]
}