{
    "date-x": [
        {
            "date": 0,
            "x": 1
        },
        {
            "date": 100,
            "x": 3300
        }
    ],
    "staffs": [
        {
            "bottom": 90,
            "top": 0
        },
        {
            "bottom": 184,
            "top": 94
        },
        {
            "bottom": 279,
            "top": 189
        }
    ]
}
