[
    {
        "date": 0.162539682,
        "onset": -1
    },
    {
        "date": 1.253877551,
        "onset": 0
    },
    {
        "date": 2.321995464,
        "onset": 2
    },
    {
        "date": 3.364149659,
        "onset": 3
    },
    {
        "date": 4.372154195,
        "onset": 4
    },
    {
        "date": 5.429478458,
        "onset": 5
    },
    {
        "date": 6.500362811,
        "onset": 6
    },
    {
        "date": 7.492539682,
        "onset": 7
    },
    {
        "date": 8.48478458,
        "onset": 8
    },
    {
        "date": 9.468820861,
        "onset": 9
    },
    {
        "date": 10.51648526,
        "onset": 10
    },
    {
        "date": 11.548526077,
        "onset": 11
    },
    {
        "date": 12.532585034,
        "onset": 12
    },
    {
        "date": 13.532857142,
        "onset": 13
    },
    {
        "date": 14.518049886,
        "onset": 14
    },
    {
        "date": 15.468435374,
        "onset": 15
    },
    {
        "date": 16.484217687,
        "onset": 16
    },
    {
        "date": 17.500612244,
        "onset": 17
    },
    {
        "date": 18.452312925,
        "onset": 18
    },
    {
        "date": 19.524421768,
        "onset": 19
    },
    {
        "date": 20.540544217,
        "onset": 20
    },
    {
        "date": 21.548117913,
        "onset": 21
    },
    {
        "date": 22.476916099,
        "onset": 22
    },
    {
        "date": 23.380521541,
        "onset": 23
    },
    {
        "date": 24.372267573,
        "onset": 24
    },
    {
        "date": 25.398526077,
        "onset": 25
    },
    {
        "date": 26.388503401,
        "onset": 26
    },
    {
        "date": 27.444512471,
        "onset": 27
    },
    {
        "date": 28.490884353,
        "onset": 28
    },
    {
        "date": 29.438526077,
        "onset": 29
    },
    {
        "date": 30.356394557,
        "onset": 30
    },
    {
        "date": 31.388390022,
        "onset": 31
    },
    {
        "date": 32.332358276,
        "onset": 32
    },
    {
        "date": 33.367074829,
        "onset": 33
    },
    {
        "date": 34.316235827,
        "onset": 34
    },
    {
        "date": 35.271111111,
        "onset": 35
    },
    {
        "date": 36.204013605,
        "onset": 36
    },
    {
        "date": 37.236349206,
        "onset": 37
    },
    {
        "date": 38.243265306,
        "onset": 38
    },
    {
        "date": 39.172290249,
        "onset": 39
    },
    {
        "date": 40.188231292,
        "onset": 40
    },
    {
        "date": 41.168979591,
        "onset": 41
    },
    {
        "date": 42.148843537,
        "onset": 42
    },
    {
        "date": 43.189115646,
        "onset": 43
    },
    {
        "date": 44.117913832,
        "onset": 44
    },
    {
        "date": 45.100226757,
        "onset": 45
    },
    {
        "date": 46.101496598,
        "onset": 46
    },
    {
        "date": 47.068503401,
        "onset": 47
    },
    {
        "date": 48.065306122,
        "onset": 48
    },
    {
        "date": 49.011904761,
        "onset": 49
    },
    {
        "date": 49.972358276,
        "onset": 50
    },
    {
        "date": 51.086371882,
        "onset": 51
    },
    {
        "date": 52.068163265,
        "onset": 52
    },
    {
        "date": 53.10047619,
        "onset": 53
    },
    {
        "date": 54.156303854,
        "onset": 54
    },
    {
        "date": 55.260272108,
        "onset": 55
    },
    {
        "date": 56.220294784,
        "onset": 56
    },
    {
        "date": 57.244376417,
        "onset": 57
    },
    {
        "date": 58.316145124,
        "onset": 58
    },
    {
        "date": 59.30877551,
        "onset": 59
    },
    {
        "date": 60.33371882,
        "onset": 60
    },
    {
        "date": 61.356802721,
        "onset": 61
    },
    {
        "date": 62.340680272,
        "onset": 62
    },
    {
        "date": 63.367596371,
        "onset": 63
    },
    {
        "date": 64.396689342,
        "onset": 64
    },
    {
        "date": 65.420408163,
        "onset": 65
    },
    {
        "date": 66.455510204,
        "onset": 66
    },
    {
        "date": 67.46063492,
        "onset": 67
    },
    {
        "date": 68.428412698,
        "onset": 68
    },
    {
        "date": 69.468435374,
        "onset": 69
    },
    {
        "date": 70.460362811,
        "onset": 70
    },
    {
        "date": 71.428639455,
        "onset": 71
    },
    {
        "date": 72.396666666,
        "onset": 72
    },
    {
        "date": 73.412448979,
        "onset": 73
    },
    {
        "date": 74.436598639,
        "onset": 74
    },
    {
        "date": 75.501836734,
        "onset": 75
    },
    {
        "date": 76.500453514,
        "onset": 76
    },
    {
        "date": 77.468231292,
        "onset": 77
    },
    {
        "date": 78.529886621,
        "onset": 78
    },
    {
        "date": 79.532403628,
        "onset": 79
    },
    {
        "date": 80.532902494,
        "onset": 80
    },
    {
        "date": 81.556462585,
        "onset": 81
    },
    {
        "date": 82.588095238,
        "onset": 82
    },
    {
        "date": 83.620226757,
        "onset": 83
    },
    {
        "date": 84.636734693,
        "onset": 84
    },
    {
        "date": 85.611972789,
        "onset": 85
    },
    {
        "date": 86.610430839,
        "onset": 86
    },
    {
        "date": 87.628321995,
        "onset": 87
    },
    {
        "date": 88.677006802,
        "onset": 88
    },
    {
        "date": 89.644195011,
        "onset": 89
    },
    {
        "date": 90.673922902,
        "onset": 90
    },
    {
        "date": 91.742040816,
        "onset": 91
    },
    {
        "date": 92.833378684,
        "onset": 92
    },
    {
        "date": 93.994376417,
        "onset": 93
    },
    {
        "date": 95.039274376,
        "onset": 94
    },
    {
        "date": 96.084172335,
        "onset": 95
    },
    {
        "date": 97.129070294,
        "onset": 96
    },
    {
        "date": 98.150748299,
        "onset": 97
    },
    {
        "date": 99.149206349,
        "onset": 98
    },
    {
        "date": 100.10031746,
        "onset": 99
    },
    {
        "date": 101.122902494,
        "onset": 100
    },
    {
        "date": 102.098140589,
        "onset": 101
    },
    {
        "date": 103.235918367,
        "onset": 102
    },
    {
        "date": 104.280816326,
        "onset": 103
    },
    {
        "date": 105.441814058,
        "onset": 104
    },
    {
        "date": 106.602811791,
        "onset": 105
    },
    {
        "date": 108.553287981,
        "onset": 106
    }
]