{
    "composer": "J.-S. Bach",
    "id": "bwv255",
    "sources": {
        "audios": [],
        "images": [
            {
                "image": "bwv255.png",
                "positions": "positions.json",
                "type": "score"
            }
        ]
    },
    "time-signature": "4/4",
    "time-signature-upbeat": 1.0,
    "title": "Ach Gott und Herr, BWV 255",
    "voices-per-staff": 2
}